<?xml version="1.0" encoding="iso-8859-1"?>
<!-- Generator: Adobe Illustrator 19.0.0, SVG Export Plug-In . SVG Version: 6.00 Build 0)  -->
<svg version="1.1" id="Layer_1" xmlns="http://www.w3.org/2000/svg" xmlns:xlink="http://www.w3.org/1999/xlink" x="0px" y="0px"
	 viewBox="0 0 512 512" style="enable-background:new 0 0 512 512;" xml:space="preserve">
<polygon style="fill:#F2F2F2;" points="469.947,308.493 512,295.688 469.947,282.877 "/>
<polygon style="fill:#CCCBCA;" points="512,295.688 469.947,308.493 469.947,300.447 "/>
<rect x="42.051" y="282.88" style="fill:#FFDB79;" width="427.904" height="25.626"/>
<rect x="42.051" y="300.442" style="fill:#FAB83E;" width="427.904" height="8.046"/>
<polygon style="fill:#353F49;" points="495.529,300.677 512,295.688 495.529,290.662 "/>
<polygon style="fill:#232E38;" points="495.529,300.677 512,295.688 495.529,297.554 "/>
<rect x="27.197" y="282.88" style="fill:#F2F2F2;" width="14.856" height="25.626"/>
<rect x="27.197" y="300.442" style="fill:#CCCBCA;" width="14.856" height="8.046"/>
<path style="fill:#474F59;" d="M12.813,308.493c-3.277,0-6.556-1.277-9.065-3.756C1.234,302.223,0,298.962,0,295.688l0,0
	c0-3.272,1.234-6.551,3.748-9.057c2.509-2.486,5.786-3.753,9.065-3.753h14.385v25.615L12.813,308.493L12.813,308.493z"/>
<path style="fill:#232E38;" d="M3.748,286.63c1.457-1.421,3.195-2.414,4.989-3.016c-0.435,1.293-0.681,2.673-0.681,4.022
	c0,3.261,1.231,6.541,3.738,9.055c2.514,2.516,5.791,3.756,9.068,3.756h6.331v8.046h-14.38c-3.277,0-6.556-1.277-9.065-3.756
	C1.234,302.223,0,298.962,0,295.688C0,292.416,1.234,289.137,3.748,286.63z"/>
<path style="fill:#F2F2F2;" d="M404.462,262.354c0,81.961-66.478,148.436-148.48,148.436c-81.961,0-148.444-66.478-148.444-148.436
	c0-82.005,66.483-148.454,148.444-148.454C337.984,113.9,404.462,180.352,404.462,262.354z"/>
<path style="fill:#D9D8D7;" d="M308.124,123.338c27.067,24.73,44.083,60.329,44.083,99.896c0,74.721-60.593,135.281-135.35,135.281
	c-39.547,0-75.128-16.97-99.858-44.037c21.084,56.246,75.361,96.315,138.985,96.315c82.002,0,148.48-66.478,148.48-148.436
	C404.462,198.689,364.398,144.443,308.124,123.338z"/>
<path style="fill:#656A73;" d="M221.233,386.437c0.632,0.108,2.24-0.445,2.657-0.561c-1.091-0.878-3.466-1.001-4.874-1.823
	c0.146,0.046-4.454-2.721-3.487-0.44c0.236,0.545,1.116,0.041,1.516,0.34c-0.54,0.804-0.806,0.568-0.21,0.906
	c0-0.015-5.059-2.749,0.023-2.916c-3.51-3.174,0.253-2.189-0.86-4.201c-0.783-1.359,2.977-2.685,0.932-3.86
	c-0.924-0.553-1.987-0.463-2.993-1.139c-1.405-1.009-0.069-2.79,1.239-2.629c0.11,0,0.822-3.2,1.05-3.707
	c-0.397-0.148-2.977-3.392-2.358-4.114c0.768-0.794,4.186,2.115,5.015-0.049c0.34-0.76-1.185-2.86-1.068-3.745
	c1.554-0.131,11.692,0.269,9.974-4.401c-0.632-1.608-4.897-4.006-4.439-5.355c1.49,0.241,3.96,2.394,5.532,1.516
	c1.303-0.66,2.342,0.74,3.697-0.745c0.241-0.3,2.491-2.683,1.848-3.154c-0.678-0.015-1.065,0.356-1.121,1.178
	c-0.824-1.083,0.586-1.828,1.29-2.645c0.207,0.264,0.361,0.484,0.509,0.686c0.86-1.262,5.56-7.355,5.701-7.519
	c2.388-2.767,0.448-6.515,2.806-8.737c2.156-2.053,4.503-3.361,7.214-4.444c0.847-0.346,3.84-1.923,4.452-1.723
	c4.964,1.531,4.367-4.439,7.542-7.089c3.203-2.706,0.814-16.445,3.436-17.477c1.441-0.553,5.668-5.775,7.859-8.136
	c2.127-2.271,2.378-5.233,1.541-8.133c-1.257-4.434-2.506-1.938-5.709-3.835c-2.58-1.549-4.57-4.626-7.724-5.066
	c-1.897-0.246-3.866,0.315-5.696-0.233c-0.771-0.259-2.911-1.544-3.732-0.453c0.133-0.161-1.7,0.686-1.582,0.73
	c-0.189-0.113-0.036-2.411-0.64-2.98c-0.978-0.942-4.296-1.887-5.491-2.166c-2.757-0.694-3.466,2.57-4.16-1.367
	c-2.271-0.609-4.529-3.261-4.168-3.932c0.241-0.253-3.523-8.189-4.045-7.465c-0.038-2.665-8.325-5.97-10.427-4.703
	c-1.861,1.367-5.322-1.231-6.51-2.468c-1.29-1.423-1.257-2.926-3.451-3.855c-0.94-0.384-2.55-0.174-2.184-1.784
	c0.399-1.715-4.078-2.056-4.5-3.707c0.66,0.108,1.193-0.2,1.777-0.348c-1.725,0.594-3.822-0.671-5.565,0.722
	c-2.452,2.071-3.932-0.96-6.648-0.428c-3.425,0.645-1.121-0.599-3.295-1.917c0.911,0.545-4.009-2.268-2.86-2.153
	c-1.032-0.125,0.143,1.697-0.993,2.092c-1.812,0.66-3.336,1.062-2.173,3.213c1.943,3.948-4.134,2.097-1.29-0.589
	c0.517-0.438,0.696-5.583,1.257-5.399c-0.742-0.246-6.292,3.377-6.93,4.145c-1.774-2.867-4.813,7.084-5.827,7.148
	c-0.509-2.44-2.826-3.438-4.854-4.155c-1.733-0.678-3.459,3.446-5.732,1.185c-4.001-4.058-2.253-10.601-0.207-15.258
	c0.878-2.122-7.419-2.79-8.433-1.923c-1.999,1.646,0.325-3.387,0.317-3.249c0.21-2.035,0.684-3.379,1.58-3.351
	c0.543-1.213,3.635-6.723,3.297-7.393c-1.226-2.877-6.461,2.25-6.956,3.517c-0.527,1.272-1.528,1.974-2.02,3.103
	c-0.494,1.142-1.428-0.246-2.273,0.218c-2.243,1.257-5.468,0.599-4.972-2.657c0.512-3.948-0.988-11.722,3.42-14.42
	c1.37-0.835,1.567-4.741,3.123-6.149c0.187-0.154,4.685-2.744,4.229-3.267c0.655,0.699,4.183-0.699,4.588,0.205
	c0.364,0.748,2.435,1.546,3.151,1.116c-0.026,0.09,0.369-1.731,0.369-1.743c-0.051-0.026-1.441-0.207-1.393-0.658
	c0.187-0.607,4.349-0.187,4.516-0.169c1.956,0.125,3.436,1.772,4.92,0.788c2.281-1.554,0.906,8.65,1.789,9.567
	c0.497,0.553,0.123,1.795,1.096,1.684c1.326-0.131,1.71-13.238,5.117-15.962c2.437-1.979,5.123-3.773,7.854-5.245
	c0.878-0.445,3.133-1.536,3.61-2.394c-0.097-0.42-0.517-0.934-0.991-0.484c-0.133-0.806,1.203-0.302,1.475-1.144
	c0.233-0.842-0.691-1.132-0.586-1.423c-0.033,0.084,0.819-1.71,0.548-1.472c0.038,0.046,0.038,0.133,0.051,0.195
	c1.336,0.2-0.317-1.277-0.371-1.503c1.797,0.909,1.037-1.948,2.772-2.099c-1.239,0.52-0.98,1.902-0.829,2.77
	c0.338,1.853,2.022-2.591,1.805-2.406c1.654-0.691,4.265-2.081,6.039-3.346c-0.387-0.172-0.842,0.159-1.341-0.215
	c1.812-0.65,3.871-0.433,5.601-1.341c-0.064-1.836,1.039-3.776,3.116-4.116c3.174-0.52,6.889-2.452,10.068-3.535
	c-0.481,1.093,0.243,0.266,1.114,0.655c-1.034-2.673-6.674,4.982-3.996,3.415c2.289-1.303,9.9-2.491,10.934-4.677
	c-0.023-0.136-0.512-1.58-0.497-1.58c-1.9,0-2.038,2.309-4.342,2.296c-4.209-0.051-1.661-2.616-2.552-3.794
	c-0.735,0.187-1.4-0.033-1.897-0.599c0.417-0.079,5.617-1.283,2.883-1.9c-4.431-0.96-7.406,3.999-11.072,3.86
	c2.721-1.651,6.444-5.207,9.748-5.658c3.54-0.471,8.445,1.252,11.561-0.937c2.752-1.912,4.667-0.512,6.195-3.638
	c0.479-0.84-1.997-1.915-2.67-2.045c0.305-0.317,0.855,0,1.037-0.522c-4.122-1.861-5.01-3.709-5.514-8.522
	c-2.12,1.554-9.219,4.854-5.42-0.522c-1.385-0.586-5.701-4.178-7.352-1.697c-0.745,1.111-1.946,2.988-3.246,3.561
	c-2.801,1.283-0.282,1.039-1.231,2.929c-1.605,3.123-5.453,2.688-7.27,5.407c-1.18,1.71-1.51,2.924-3.328,3.722
	c-1.551,0.678-2.156-1.147-1.372-2.624c0.55,0.612,1.062,0.717,1.523,0.251c0.12-0.658-0.85-0.335-1.121-0.599
	c0.543-0.97,1.219-1.848,1.984-2.66c-0.251-0.151-4.252-0.781-4.083-1.83c0.243-2.168-2.501-0.968-2.985-1.636
	c2.138-2.685,2.138-3.922,6.326-6.029c1.405-0.717,9.426-4.81,10.924-3.781c-0.174,0.909-1.175,0.714-1.708,1.19
	c1.147,0.297,4.493,0.668,5.65-0.125c-0.246-0.215-1.61-2.44-0.904-2.967c-0.087,0.09,2.296,0.046,2.458-0.02
	c1.311-0.323,2.711-0.468,3.466-1.779c0.625-1.149,4.869-2.66,5.883-2.086c5.524,3.144-7.516,6.467-7.639,6.126
	c0.251,0.896,3.781-0.627,4.646,1.766c0.238,0.599,4.229,1.876,4.631,1.324c0.215-0.276-1.142-1.738-1.188-2.084
	c4.168,2.022,3.948,0.965,3.261-1.846c-0.689-2.678,2.44,0.2,2.639,0.266c0.696,0.353,3.52-1.272,3.945-1.853
	c-1.021-0.801-2.783-0.783-3.679-1.746c-0.868-0.822,2.184-1.016,1.126-1.907c-1.262-1.05-3.295-0.791-2.591-2.813
	c-0.727-0.212-1.413-0.136-2.058,0.264c0.187,0.369,0.617,0.084,0.758,0.292c-0.684,0.43-1.487,0.502-2.255,0.476
	c0.218-0.361,0.934-0.361,0.96-1.044c-2.194-0.261-3.336,1.044-5.207,1.626c0.535-0.788,1.457-1.032,2.102-1.605
	c-2.068,0.264-4.068,1.034-5.683,2.386c0.251,0.238,0.471,0.471,0.62,0.771c-1.595,1.39-3.704,1.81-5.542,2.688
	c0.335-1.26,1.661-0.96,2.099-1.884c-0.666,0.005-1.362,0.151-1.958,0.438c0.806-0.097,3.131-2.432,3.663-3.026
	c-3.366-0.379-4.795,3.988-8,3.364c0.671-0.771,2.033-0.376,2.483-1.582c-1.162,0.125-5.668,3.162-6.38,1.582
	c-0.038-0.105,8.174-3.364,9.044-4.552c-0.55-0.064-1.167,0.517-1.677-0.148c0.369-0.458,1.065-0.489,1.51-0.983
	c-2.665-0.031-10.683,3.236-10.086,5.112c-1.034,0.858-2.15,1.078-3.443,0.545c0.497-0.763,2.286-0.778,0.852-1.917
	c-2.601,0.965-5.094,2.017-7.613,3.116c-5.796,2.56-11.451,5.583-16.824,8.911c-8.891,5.486-16.251,11.991-23.555,19.343
	c-3.884,3.955-18.739,21.258-18.683,24.87c0.038,2.665-1.544,5.036-2.542,7.439c-0.791,1.956-0.878,4.695-1.864,6.515
	c-2.153,3.84-1.162,8.284-2.145,12.695c1.224-0.911,3.75-21.123,5.932-20.362c0.43,0.136-1.375,8.389-1.792,9.413
	c-1.864,4.237,0.573,9.434-0.666,13.844c-0.113,0.438-0.717,2.688-0.732,3.136c-2.045,1.554,0.535,3.901,0.52,5.617
	c0,1.021,5.22,5.583,6.236,6.185c2.184,1.316,2.591-1.006,4.59-0.599c1.782,0.394,2.294,3.645,3.267,5.025
	c1.293,1.915,6.17,1.697,6.986,2.614c0.553,0.671,0.079,4.401,2.296,4.915c-0.015-0.253-0.061-1.567,0.259-1.766
	c0.678-0.399,2.107,2.068,1.633,2.545c-0.686,0.138-1.354-0.115-1.884-0.778c0,0.338-0.346,5.199,1.06,4.262
	c0.026-0.294,0.138-0.622,0.166-0.906c1.848,0.794,1.708,3.517,3.008,3.917c1.843,0.489,3.185,2.767,4.564,3.428
	c1.213,0.617,0.865-4.278,3.213-4.513c1.859-0.187,2.908,4.698,3.543,5.891c1.001,1.708-1.29,5.839-0.038,7.194
	c1.324,1.334-3.213,4.58-3.418,5.98c-0.138,1.065-2.458,2.056-2.376,2.432c0.189,1.121-0.479,2.691-0.891,3.776
	c-1.139,3.062-0.581,3.356,1.375,4.733c0.077,0.049-3.638,7.447-1.495,9.316c3.372,2.811,7.818,9.631,8.896,13.937
	c2.207,5.919,5.601,9.562,11.228,12.5c4.582,2.406,7.816,6.523,7.816,12.04c0.187,3.246-0.297,7.314,1.06,10.36
	c0.963,2.122-0.84,5.617,0.522,7.544c0.888,1.185-0.266,1.876,0.261,3c0.532,1.201,1.772,3.2,1.759,4.572
	c-0.046,2.345-0.005,5.105,0.164,7.406c0.049,0.763-0.717,2.122-0.3,2.621c0.535,0.632,3.671,8.325,3.671,10.601
	c-0.02,0.517,2.381-0.166,0.2-2.35c2.601-1.472,2.079,4.644,2.245,4.69c-2.319-0.801-0.806-0.146-0.635,2.831
	c0.108,1.754-0.468,0.922,0.991,1.236c2.278,0.515,0,2.063,0.883,3.315c1.708,2.47,4.365,4.751,6.162,6.7
	C212.69,386.214,217.743,385.715,221.233,386.437C221.734,386.522,220.588,386.314,221.233,386.437z M230.904,144.481
	c-0.794,0.727-1.687,0.865-2.588,1.142C228.956,144.63,229.957,144.788,230.904,144.481z M223.201,143.813
	c0.596-0.084,1.078,0.087,1.413,0.499c0.005,0.246-3.169,0.399-3.656,1.206C221.379,144.118,222.523,144.351,223.201,143.813
	C223.529,144.228,222.523,144.351,223.201,143.813z M215.444,149.32C216.105,149.471,214.456,149.158,215.444,149.32
	C215.47,149.327,215.227,149.294,215.444,149.32z M211.174,141.184c0.259-0.34,0.517-0.294,0.653,0.156
	C211.505,141.66,211.29,141.612,211.174,141.184C211.187,140.995,211.144,141.371,211.174,141.184z M206.909,153.866
	C205.729,153.777,208.164,153.91,206.909,153.866C206.728,153.866,207.081,153.879,206.909,153.866z M208.164,148.938
	c-4.114,3.878-0.932,0.051-2.127,1.252c0.023,0.054,0,0.115-0.054,0.123C205.64,149.944,208.084,148.966,208.164,148.938
	C207.644,149.448,207.457,149.071,208.164,148.938z M206.643,144.358c-0.74,0.886-0.74,0.886-1.777,0.686
	C205.407,144.66,206.129,144.812,206.643,144.358z M225.119,129.787c-0.279,0.015-0.538,0.015-0.97,0.015
	C225.452,128.699,225.244,129.787,225.119,129.787C224.84,129.805,225.29,129.787,225.119,129.787z M228.083,127.813
	c-0.458,0.52-1.106,0.22-1.667,0.468C227.005,127.119,227.103,127.099,228.083,127.813z M211.356,129.178
	c0.361-0.317,0.76-0.479,1.213-0.438C212.977,129.339,210.079,129.651,211.356,129.178
	C211.505,128.868,211.213,129.229,211.356,129.178z M210.621,128.333c0.481,0.225,0.399,0.42-0.161,0.658
	C210.084,128.75,210.138,128.558,210.621,128.333C210.78,128.333,210.368,128.358,210.621,128.333z M188.984,165.261
	c0.036-0.026-6.513,2.606-6.011,0.991c-0.156,0.507,2.222-1.841,1.756-1.618c0.535-0.228,4.895-0.494,6.154-0.484
	C190.226,164.803,189.606,165.033,188.984,165.261C187.523,165.804,189.606,165.033,188.984,165.261z M194.161,162.043
	c5.379,0.522-3.197,2.148-4.091,1.185C191.278,162.189,192.671,161.866,194.161,162.043
	C194.601,162.081,192.671,161.866,194.161,162.043z M193.311,128.622c1.4-0.922,2.941-1.6,4.849-2.033
	c-1.393,1.149-3.218,1.605-4.936,2.071L193.311,128.622z M193.577,157.668c-0.223,0.243-0.481,0.233-0.689-0.005
	C193.203,157.54,193.528,157.443,193.577,157.668C193.684,157.901,193.528,157.443,193.577,157.668z M191.997,160.888
	C191.89,160.888,191.457,160.768,191.997,160.888C192.026,160.888,191.836,160.835,191.997,160.888z M190.405,158.144
	c1.961,0.916,0.855,3.935-0.812,1.567c-0.095,1.421-2.522,3.786-3.827,4.083c0.479-0.568,0.666-1.18,0.484-1.838
	c-0.399-0.346-1.226,0.607-1.69,0.591c0.215,0.847,3.535-5.693,0.748-3.799c-1.027,0.781-7.762,7.913-8.123,7.524
	c-0.666-0.645,2.954-5.896,3.238-6.083C182.717,158.287,187.523,156.777,190.405,158.144z M186.67,133.176
	c0.287-0.172,2.447-1.498,2.703-1.183c0.722,0.868-3.451,1.938-3.684,1.958C185.961,133.422,186.368,133.345,186.67,133.176
	C187.451,132.739,186.368,133.345,186.67,133.176z M187.128,150.687c-0.01,0.108-0.878,1.736-1.362,1.101
	C185.341,151.329,186.988,149.944,187.128,150.687C187.072,151.112,187.09,150.49,187.128,150.687z M182.403,137.178
	c0.266,0,3.738-2.189,3.848-1.298C186.322,136.138,182.034,137.229,182.403,137.178z M181.471,140.756
	c-0.236,0.387-0.42,0.599-0.916,0.594C180.723,140.938,181.051,140.879,181.471,140.756z M179.034,149.158
	c0.484-0.361,1.605-2.191,1.065-2.916c0.323,0.399-2.099-0.266-1.006-0.666c0.458-0.148,3.182-1.633,3.628-1.193
	c0.768,0.822-3.387,5.222-4.255,5.583C178.54,149.527,178.813,149.338,179.034,149.158
	C179.699,148.641,178.813,149.338,179.034,149.158z M181.384,154.706c3.028-0.968,4.127-2.665,5.914-0.374
	c0.717,0.863,0.556,3.085-1.044,2.557c0.433,0.133-4.89-0.364-3.894-0.945c-1.068,0.666-3.146,1.144-4.383,0.581
	C179.128,155.871,180.157,155.113,181.384,154.706C182.157,154.468,180.157,155.113,181.384,154.706z M177.234,149.12
	c0.261,0.717,0.064,1.07-0.773,1.193C176.794,149.834,177.004,149.46,177.234,149.12z M134.625,213.919
	C133.228,213.855,135.657,213.855,134.625,213.919C134.436,213.911,134.748,213.911,134.625,213.919z M151.785,226.271
	C151.427,226.394,152.852,226.017,151.785,226.271C151.718,226.291,151.995,226.222,151.785,226.271z M193.761,240.125
	C193.052,240.023,194.616,240.195,193.761,240.125C193.7,240.125,193.897,240.148,193.761,240.125z M200.645,363.154
	C199.462,362.959,201.272,362.214,200.645,363.154C200.376,363.123,200.66,363.123,200.645,363.154z M203.704,301.622
	C203.272,301.184,203.958,301.855,203.704,301.622C203.661,301.586,203.786,301.688,203.704,301.622z M204.188,339.955
	C203.4,340.201,204.997,339.645,204.188,339.955C203.973,340.014,204.291,339.914,204.188,339.955z M208.218,381.292
	c-0.54-0.333-0.54-0.515-0.023-0.614C208.788,380.91,208.796,381.11,208.218,381.292
	C208.003,381.261,208.433,381.332,208.218,381.292z M213.573,383.616c-0.558-0.105-0.522-0.346,0.187-0.645
	C214.193,383.155,214.154,383.401,213.573,383.616C213.348,383.616,213.729,383.56,213.573,383.616z M202.232,368.361
	c-0.051,0.033-0.123,0.049-0.174,0.061C202.222,368.261,202.26,368.238,202.232,368.361z M215.529,121.28c0,0-0.005,0-0.013,0
	c0.005,0,0.005-0.013,0.005-0.013L215.529,121.28z M165.1,145.183c0,0.023-0.015,0.023-0.015,0.023L165.1,145.183z M166.51,144.013
	L166.51,144.013L166.51,144.013z M402.012,235.738l0.013,0.018c-2.883-10.703-5.048-21.271-9.48-31.644
	c-5.271-12.301-12.18-23.905-20.552-34.345c-7.862-9.876-16.991-18.732-27.116-26.289c-4.915-3.697-10.058-7.037-15.414-10.084
	c-2.514-1.477-5.117-2.865-7.764-4.183c-1.149-0.538-5.212-1.603-5.811-2.591c0.033,0.458,2.376,1.646,2.675,1.946
	c-1.582-0.417-5.716-2.171-5.806-2.429c0.131-0.2,0.445,0,0.399-0.333c-2.322-1.492-11.08-4.713-12.864-2.319
	c0.399-0.481,6.085,6.062,6.216,7.232c0.356,2.542,4.357,5.258,6.907,6.077c3.52,1.201,0.863-0.392,2.353-1.213
	c0.98-0.489,1.846,1.605,2.762,1.129c-0.028-0.023,0-0.038,0.033-0.061c-0.241-0.494-0.543-0.978-0.814-1.467
	c-0.264,0,6.433,6.886,7.24,5.373c-0.768-1.866-1.979-3.968-3.873-5.714c-1.669-1.582-4.303-1.705-6.095-3.284
	c-0.94-0.791-4.309-3.277-4.685-4.426c4.462,0.148,9.646,9.615,14.121,5.947c-0.62-0.412-1.231-0.883-1.802-1.38
	c0.809,0.246,4.554,1.452,3.313,3.028c-3.597-0.64,3.028,3.011,3.133,3.4c-0.691-0.049-1.096-0.563-1.697-0.609
	c0.246,1.26,3.786,2.524,4.022,4.634c-2.122,0.335-1.201-1.283-2.604,0.456c-0.453,0.55-2.327,0.376-3.374,0.445
	c-2.47,0.2-5.212-3.96-6.984-5.24c0.737,2.33,2.045,3.446,4.641,5.079c1.242,0.714-1.789,1.029-1.746,2.086
	c0.11,0,0.84,0.356,0.817,0.561c0,0.123-0.684-0.479-0.817-0.561c0.266-0.164-0.41,4.083-0.494,4.012
	c2.035,2.34-2.655,1.672-2.783,1.738c0.381,0.538,1.114,0.809,1.298,1.585c-1.38,0.077-2.499-0.128-3.799,0.361
	c1.907,0.561,12.559,5.504,10.243,9.193c-0.763,1.206-7.954-0.302-9.313-0.348c-2.778-0.2-0.177,2.66-0.115,2.988
	c0.451,2.122,2.086,3.062,1.964,5.545c-0.123,1.736,1.656,1.784,2.202,3.261c0.494,1.293,0.197,1.405,1.546,1.595
	c2.365,0.3,2.412-0.054,4.434,1.485c1.439,1.111,1.984-1.032,3.663-1.096c4.237-0.161,0.625-1.032,2.657-1.6
	c2.465-0.691-0.727-4.621-0.55-5.376c0.172-1.019-0.184-2.181,1.208-2.568c2.143-0.561-0.558-2.793-0.701-3.379
	c-0.428-1.748,5.901,1.503,5.117-2.959c3.645,1.155,7.386,4.442,10.734,6.326c1.976,1.172,3.922,2.312,5.396,4.191
	c1.702,2.24-2.455,1.324-2.742,1.976c-0.236,0.691,3.699,2.483,4.332,2.445c0.082-0.399-0.489-2.67-0.545-3.072
	c-0.164-1.562-2.486-3.123-2.294-4.39c0.701,0.067,1.344,0.358,1.925,0.809c-2.135-2.627-5.571-2.877-7.962-4.81
	c-1.467-1.19-3.333-2.161-4.739-3.377c-0.005-0.013-2.58-3.302-0.801-2.662c2.862,0.97,5.919,3.843,8.837,5.358
	c2.281,1.201,2.844,1.938,4.536,3.899c0.655,0.781,4.204,4.877,4.966,5.015c-0.023-0.036,2.908,2.568,4.073,2.967
	c-0.527-1.203-0.978-2.688-1.585-3.643c-0.776-1.283-4.106-2.017-4.106-3.94c0.773,0.064,0.852-0.722,2.45-0.663
	c-0.855-0.038,1.044-1.265,0.95-1.091c-3.105-1.746-7.247-6.879-8.371-10.353c0.865,0.031,1.331,1.155,2.24,0.584
	c-0.289-0.584-0.358-1.221-0.289-1.859c0.22,0.276,3.156,2.772,2.542,3.267c-0.804-0.018-1.469-0.364-2.066-1.009
	c0.392,1.475,1.866,1.503,2.455,2.511c0.054-0.42-0.195-0.742,0.125-1.193c2.547,1.062,7.762,5.107,8.443,7.962
	c-1.108,0.1-3.254-2.271-3.986-1.679c-0.266,0.584-0.243,1.152,0.1,1.7c-0.351,0.018-0.622,0.079-0.937,0.259
	c0.425,0.317,0.625,0.755,0.684,1.244c-0.381,0.138-0.801,0.259-1.239,0.387c0.358,1.418,7.892,8.607,8.425,7.864
	c0.148-0.248-0.325-0.98-0.223-1.085c0.41-0.468,1.58,1.62,2.212,1.226c0.489-0.335-0.471-0.991,0.085-1.265
	c1.134-0.581,5.617,8.266,6.182,9.29c2.171,4.109,0.722,1.603-0.929,2.186c-0.228,0.417-0.389,0.847-0.43,1.341
	c-2.621-0.609-5.54-2.122-7.67-3.651c-3.402-2.455,1.085,6.689-0.852,5.548c-1.155-0.678-1.869-1.656-3.269-1.761
	c-2.081-0.212-2.657-2.422-4.585-3.052c-1.551-0.522-7.677-1.083-6.907-3.909c0.681-2.406-2.412-4.393-3.448-5.32
	c-0.522-0.456-7.36,0.42-8.461,0.75c-1.856,0.594-4.838,1.224-5.901,2.962c-1.784,3.261-5.955-1.034-7.626-0.348
	c-0.891,0.343-0.023,3.031-0.492,3.886c-0.66,1.285-2.332,1.367-2.752,2.89c-0.719,2.772,1.398,5.076,0.42,7.619
	c-0.799,2.045-4.7,2.916-4.754,4.588c-0.031,0.904-0.189,1.884-1.034,2.36c-1.787,1.039,0.033,3.389-1.073,4.562
	c-6.036,6.144,1.958,12.155,0.584,18.903c-0.776,3.84-1.226,4.6,0.417,7.916c0.397,0.819,0.087,6.753,3.118,4.352
	c0.34,3.466,4.828,4.16,5.601,7.462c0.957,3.899,4.78,5.606,7.767,7.949c1.19,0.934,2.212,2.135,3.569,2.844
	c2.463,1.239,4.096-0.684,6.423-1.331c2.117-0.62,4.319-0.399,6.308,0.553c1.137,0.532,9.654-5.499,11.958-4.339
	c1.692,0.84,1.764,2.877,2.563,4.367c1.119,2.079,3.459-0.658,5.028,0.054c2.78,1.254,3.625,11.469,1.249,13.33
	c-1.769,1.326,2.299,6.886,2.839,8.023c1.605,3.154,3.018,8.655,2.516,12.17c-0.364,2.824,0.381,7.301-1.224,9.807
	c-1.623,2.524-2.573,5.176-3.853,8.01c-3.359,7.252-0.131,15.521-3.044,23.083c-1.746,3.863-1.413,8.008-2.368,12.029
	c-0.62,2.614-3.781,6.387-2.555,9.093c1.902-1.705,4.721-1.492,6.858-2.568c4.396-2.163,6.49-7.209,9.679-10.601
	c1.708-1.8,2.765-4.047,3.784-6.254c0.96-2.092,2.883-3.43,3.804-5.484c2.23-5.194,4.262-10.378,6.51-15.539
	c4.708-11.2,5.473-21.937,7.109-33.915C404.385,260.442,404.424,248.41,402.012,235.738z M390.807,206.241
	c-0.604-1.485-8.474-13.074-7.588-13.724c1.073-0.658,17.981,29.268,16.143,33.905C396.762,219.604,393.715,212.964,390.807,206.241
	C390.776,206.188,391.38,207.624,390.807,206.241z M398.075,259.215c-0.338-0.85,0.11-1.559,0.333-2.534
	C398.764,257.71,398.208,258.404,398.075,259.215z M397.179,263.916c-0.038-0.499-0.046-0.914,0.282-1.3
	C397.693,263.122,397.478,263.488,397.179,263.916z M394.365,302.333c-0.297,0.097-0.596,0.2-0.911,0.33
	c-0.538,0,1.004-0.763,1.07-0.806C394.445,302.136,394.445,302.231,394.365,302.333
	C394.168,302.676,394.445,302.231,394.365,302.333z M394.801,286.723c-0.015-1.423,0.054-1.492,1.454-2.378
	C395.981,285.315,394.967,285.778,394.801,286.723z M396.413,279.478c-0.033-2.611-0.092-5.688,0.466-8.223
	c0.1,4.436,0.302,8.901,0.166,13.322C396.357,283.63,396.413,280.589,396.413,279.478
	C396.403,278.523,396.413,280.356,396.413,279.478z M398.723,287.77c-0.046,2.368-0.397,8.845-1.961,10.719
	c0.174-4.04,1.638-7.665,1.736-11.674C398.802,287.209,398.723,287.488,398.723,287.77
	C398.723,288.031,398.723,287.488,398.723,287.77z M400.563,263.521c-0.678,2.824-0.018,3.725-1.705,5.307
	c-0.005-2.122-0.771-6.175,1.405-7.414C400.522,262.093,400.794,262.656,400.563,263.521
	C400.292,264.671,400.794,262.656,400.563,263.521z M307.379,401.393c0.253,0.422-18.634,5.752-20.587,6.139
	c-7.831,1.654-15.805,2.683-23.839,3.09c-15.242,0.755-31.206-0.637-45.855-5.084c1.874,0.195,4.132,1.178,6.067,0.855
	c-1.812-1.121-4.096-0.722-5.722-2.171c6.139,1.001,11.978,0.532,17.562,1.277c-0.581-0.791-5.706-2.015-5.683-2.555
	c0.755-0.054,4.685-0.161,4.823-0.312c1.876-1.411-2.924-1.239-2.493-2.294c0.133-0.253,1.426,0.177,1.897-0.428
	c0.758-0.965,0-1.472,0.289-1.956c0.205-0.433,7.603-1.741,8.369-1.377c-0.842,0.515-1.861-0.092-1.464,1.367
	c-0.781-0.131-3.062-0.036-3.182,0.932c0.051-0.223,2.478,3.182,2.601,3.361c0.822,1.324,3.822,2.148,4.04,3.717
	c0.504,2.716,14.548,2.437,16.655,2.222c5.266-0.617,10.179-2.486,15.36-3.4c3.049-0.545,6.129-1.385,9.262-1.708
	c1.421-0.138,6.252-1.815,7.36-1.462C293.578,404.132,304.801,400.87,307.379,401.393
	C307.423,401.434,306.975,401.316,307.379,401.393z M392.886,319.447c0.602-1.533,1.093-3.11,1.869-4.593
	C394.266,316.447,393.608,317.932,392.886,319.447z M395.361,313.277c0.061-0.169,0.151-0.363,0.202-0.556
	C395.579,312.97,395.443,313.116,395.361,313.277z M232.993,118.948c-0.778-0.136-1.638-0.031-2.455-0.164
	c0.445-0.387,2.916-0.466,1.815-1.172c3.423-2.099,10.601-2.519,14.528-2.056c4.403,0.543,8.86-0.829,13.21-0.128
	c1.754,0.289,3.287,0.323,5.03,0.445c1.533,0.169-0.202,1.738,1.533,2.007c1.042,0.11,3.09,2.458,4.012,1.943
	c-0.049,1.62-0.768,0.507-0.248,2.02c0.105,0.346,1.915,1.37,1.846,1.495c-0.164,0.233-5.087-0.11-4.877-0.059
	c-0.394-0.051,0.074,0.771,0.412,0.64c0.993,0.259,3.123-0.067,4.201,0.033c-2.506,2.24-6.234,1.974-8.993,3.786
	c-1.684,1.103-4.239,1.001-6.07,1.674c0,1.9-1.452,4.193-2.703,6.172c-0.901,1.344-7.191-1.787-7.823-2.591
	c-1.352-1.644-4.477-5.952-1.106-7.293c4.132-1.633,0.033-0.305-1.178-1.172c0.988-1.408,2.071-0.922,3.648-0.696
	c-0.822-1.111-1.828-1.38-3.013-0.806c-0.399-1.18,1.708-2.245-0.123-3.517c-0.817-0.548-5.161,0.097-5.268-0.655
	c-0.251-1.894,5.284-0.901,6.269-2.44C241.482,115.528,237.046,119.567,232.993,118.948
	C232.215,118.812,233.748,119.055,232.993,118.948z M311.135,147.261c0.701-0.074-0.822-2.199-1.224-2.632
	c0.456,0.051,0.863,0.097,1.334-0.187c-0.353-0.963-4.7-3.459-5.002-3.297c-1.636,1.039-3.686-3.538-3.889-4.155
	c2.783-0.369,4.513,2.616,7.053,3.84c2.156,1.044,9.935,4.744,10.13,7.081c0.164,1.162-5.873,0.673-6.779,2.048
	c-0.66-1.702,1.528-1.687,1.48-2.22C314.156,147.325,311.462,147.223,311.135,147.261
	C310.986,147.29,312.079,147.128,311.135,147.261z M232.077,149.448c-0.428,0.289-5.693,5.271-5.568,5.747
	c0.102,0.438,5.448,0.123,6.38,0.645c-0.064,0.607-0.768,0.297-0.916,0.829c0.722,0,2.877-1.352,3.203-0.932
	c0.038,0.323,0,0.658-0.172,0.968c2.358,2.33,2.138-2.734,2.26-2.995c-1.654-0.243,0.374-2.565-2.424-1.577
	c0.164-0.064-3.049-0.95-2.885-0.776c-0.238-0.246,2.296-2.452,2.486-2.734C232.95,148.255,232.765,148.908,232.077,149.448
	C231.16,150.106,232.251,149.294,232.077,149.448z M237.233,154.952C237.46,155.128,236.861,155.128,237.233,154.952
	C237.268,154.988,237.161,154.977,237.233,154.952z M236.055,154.824c0.146-0.179,1.039-0.556,0.486-0.038
	C236.378,155.113,235.574,155.359,236.055,154.824C236.104,154.744,235.955,154.952,236.055,154.824z M232.328,148.777l0.026-0.02
	c0,0.02,0,0.031,0.023,0.054C232.356,148.787,232.356,148.787,232.328,148.777z M227.587,153.518c0.174,0,0.269,0,0.376,0.115
	C227.843,153.636,227.261,153.605,227.587,153.518C227.761,153.518,227.497,153.539,227.587,153.518z M176.1,215.442
	c-1.457,0.161,0.911-1.132,0.722-1.595c-0.991-2.26-7.693-2.755-8.323-4.549c0.284-0.123,0.466-0.333,0.599-0.62
	c-2.34-0.929-3.512,1.876-5.604,1.71c4.326-7.355,15.058,1.032,19.374,4.439C180.616,215.109,178.358,215.127,176.1,215.442
	C175.89,215.455,177.329,215.281,176.1,215.442z M181.691,219.359c-1.083-0.479,3.574-0.43,4.201-0.691
	c-0.942-1.405-0.084-2.181-1.902-2.734c1.636-1.961,7.025,0.338,8.73,1.083c-0.133,0.259-0.428,0.033-0.632,0.333
	c0.174,0.125,3.699,3.067,1.324,2.068c-2.621-1.111-4.091,0.456-5.929,1.492C186.012,218.824,183.639,220.262,181.691,219.359
	C181.484,219.272,182.134,219.571,181.691,219.359z M307.364,144.261c2.532,2.627-1.357,4.618-3.133,2.949
	c-0.876-0.891-0.358-3.003-2.378-3.633c0.53-0.161,1.07-0.335,1.608-0.527C302.113,139.835,306.729,143.578,307.364,144.261
	C307.919,144.855,307.192,144.061,307.364,144.261z M274.493,128.394c-0.146-0.527,3.638-0.284,4.27-0.397
	c1.006-0.184,8.535,0.571,5.883,1.782c-2.061,0.929-5.033,1.969-6.999,0.2C277.148,129.549,274.514,128.494,274.493,128.394
	C274.399,128.044,274.665,128.906,274.493,128.394z M343.237,165.709c0.886,0,3.031,3.364,2.66,3.912
	c-1.014,1.6-2.691-2.445-3.735-3.064C342.546,166.31,342.884,166.024,343.237,165.709z M225.782,119.987
	c2.56-1.933,3.156-0.829,6.356-0.515C231.117,120.397,228.636,120.596,225.782,119.987
	C226.478,119.452,228.636,120.596,225.782,119.987z M282.435,117.783c-1.879-0.522-3.891-0.627-5.734-1.334
	c2.237-0.246,4.9,0.594,6.397,1.024C283.62,117.642,282.312,117.727,282.435,117.783
	C280.556,117.261,282.593,117.821,282.435,117.783z M276.7,116.449c-0.184,0.023-0.387,0.038-0.614,0.064
	C276.314,116.301,276.508,116.28,276.7,116.449C276.516,116.472,276.621,116.424,276.7,116.449z M176.678,219.471
	c0.394,0.028,0.632,0.248,0.707,0.648c-0.236,1.075-3.607-0.448-3.942-0.922C174.6,218.54,175.662,218.926,176.678,219.471z
	 M200.579,219.395C198.828,223.718,194.383,216.376,200.579,219.395C200.323,220.009,199.529,218.88,200.579,219.395z
	 M207.47,240.394L207.47,240.394c0.051-0.123,0.151-0.184,0.312-0.2C207.677,240.271,207.606,240.31,207.47,240.394z
	 M208.084,240.271c-0.079-0.049,0.479-1.772,1.605-1.861C211.005,239.25,208.735,240.348,208.084,240.271
	C207.997,240.223,209.554,240.443,208.084,240.271z M222.134,119.055c-1.178,0.788-2.614,0.264-3.835,0.73
	C220.006,118.623,220.803,118.7,222.134,119.055C220.959,119.841,221.939,119.007,222.134,119.055z M177.51,206.106
	c-0.468-1.777-1.129-1.807,0.049-3.361C178.028,204.396,178.028,205.396,177.51,206.106
	C177.329,205.384,178.028,205.396,177.51,206.106z M145.324,267.477c-0.023,0.668-0.307,0.906-0.919,0.694
	c-0.236-0.207-0.343-2.36,0.054-2.824C144.735,266.086,145.07,266.762,145.324,267.477
	C145.472,267.786,145.07,266.762,145.324,267.477z M219.758,151.378c1.359-0.038,2.476,0.394,3.715,1.295
	C221.852,152.983,220.803,152.369,219.758,151.378z M342.679,165.089l0.018,0.015c-0.412-0.115-2.811-1.6-1.82-2.368
	C341.576,162.232,342.587,164.844,342.679,165.089z M367.58,177.487c-0.466-0.476-1.403-0.148-1.687-1.137
	c0.852,0.456,1.761,0.225,2.573,0.855C368.161,177.441,367.877,177.738,367.58,177.487
	C367.114,177.014,367.877,177.738,367.58,177.487z M224.238,119.875c-0.233-0.346-0.655-0.102-0.922-0.422
	c0.707-0.75,1.618-0.502,2.47-0.724C225.759,118.812,224.758,120.643,224.238,119.875
	C224.005,119.529,224.356,120.11,224.238,119.875z M220.058,120.806c-1.083,0.822-2.222,1.644-3.758,1.492
	C217.329,121.224,218.739,121.088,220.058,120.806z M219.704,157.545c0.274,0.077,0.612-0.015,1.101-0.064
	c-1.485,1.795-3.169-0.701-2.839-0.801C217.728,156.739,219.576,157.54,219.704,157.545
	C219.978,157.622,219.128,157.46,219.704,157.545z M220.316,121.526c1.021-0.847,2.207-0.975,3.459-0.883
	C222.697,121.28,221.583,121.628,220.316,121.526z M336.435,169.262c-1.147-0.172,2.22-1.239,0.998,0.317
	C337.101,169.549,336.755,169.449,336.435,169.262C336.276,169.234,336.824,169.29,336.435,169.262z M373.519,177.725
	c-0.689-0.335-0.975-0.814-0.758-1.636C373.348,176.527,373.578,176.991,373.519,177.725z M222.833,126.889
	c0.428-0.732,0.904-0.932,2.36-0.911C224.451,126.789,223.683,126.948,222.833,126.889z M212.116,131.881
	c-0.832,0.466-1.459,0.801-2.378,0.742C210.368,131.881,211.144,131.912,212.116,131.881z M301.225,138.01
	c-0.161,0.32-0.005,0.548,0.207,0.778c-0.236-0.136-1.275-1.436-0.471-1.61C301.312,137.318,301.407,137.597,301.225,138.01
	C301.066,138.33,301.343,137.81,301.225,138.01z M166.981,210.711c-0.038,0.522-0.31,0.771-0.786,0.76
	C165.972,211.016,166.728,209.789,166.981,210.711C167.05,211.011,166.93,210.527,166.981,210.711z M216.929,364.869
	c0.399,0.123,0.64,0.453,0.691,0.875C217.618,367.032,215.252,365.015,216.929,364.869
	C217.201,364.838,216.584,364.892,216.929,364.869z M213.573,132.654c-0.264,0.412-0.663,0.625-1.283,0.845
	C212.585,132.797,213.038,132.68,213.573,132.654z M146.422,267.254C146.304,268.754,146.004,265.81,146.422,267.254
	C146.406,267.438,146.365,267.108,146.422,267.254z M223.503,135.127c0.036-0.033,0.118,0.013,0.174,0.026
	C223.503,135.281,223.168,135.281,223.503,135.127z M216.842,120.952c-0.154,0.046-0.333,0.064-0.515,0.092
	C216.504,120.911,216.678,120.901,216.842,120.952z M216.261,121.073c-0.113,0,0.038-0.031,0.067-0.031
	C216.299,121.042,216.271,121.042,216.261,121.073z M215.555,121.267l-0.026,0.013C215.521,121.267,215.529,121.267,215.555,121.267
	z M215.555,121.267c0.164-0.225,0.44-0.179,0.668-0.195C216.051,121.318,215.813,121.357,215.555,121.267z M220.283,121.526h0.033
	C220.311,121.546,220.283,121.556,220.283,121.526z M220.283,121.546c-0.046,0.261-0.276,0.212-0.458,0.212
	C219.904,121.546,220.058,121.5,220.283,121.546z M165.642,273.615C165.335,273.354,165.878,273.789,165.642,273.615
	C165.522,273.508,165.806,273.746,165.642,273.615z M324.424,133.176C325.345,133.422,324.467,133.371,324.424,133.176
	C324.424,133.176,324.454,133.32,324.424,133.176z M301.445,138.811c-0.008-0.003-0.008-0.023-0.013-0.023
	c0.131,0.018,0.146,0.074,0.131,0.184C301.545,138.918,301.486,138.862,301.445,138.811
	C301.437,138.806,301.486,138.862,301.445,138.811z M219.796,121.759c0.023,0,0.023,0,0.031,0c0,0.038-0.008,0.038-0.038,0.01
	C219.786,121.766,219.796,121.766,219.796,121.759z M219.5,121.836c0.077-0.038,0.205-0.038,0.287-0.067
	C219.651,121.958,219.538,121.984,219.5,121.836C219.576,121.797,219.517,121.861,219.5,121.836z M354.737,167.7v-0.005l0.018,0.018
	L354.737,167.7z M236.943,263.437C236.475,263.037,237.245,263.137,236.943,263.437
	C236.861,263.401,237.046,263.322,236.943,263.437z M307.507,401.354c-0.046,0.031-0.061,0.031-0.128,0.031
	c0.044-0.069,0.064-0.115,0.128-0.084C307.507,401.3,307.507,401.336,307.507,401.354z M307.379,401.393
	c0-0.008-0.015-0.008,0-0.008V401.393z M188.8,158.318c0.072-0.026,1.464-0.161,0.973,0.381
	C189.238,158.979,188.918,158.822,188.8,158.318C188.984,158.292,188.805,158.623,188.8,158.318z M180.142,146.243
	c-0.415-0.266-0.292-0.53,0.276-0.814C180.851,145.597,180.774,145.887,180.142,146.243
	C179.958,146.23,180.457,146.158,180.142,146.243z"/>
<path style="fill:#474F59;" d="M342.162,166.559c0.381-0.248,0.722-0.535,1.075-0.847c0.886,0,3.031,3.364,2.66,3.912
	C344.886,171.223,343.206,167.178,342.162,166.559z M340.877,162.739c-0.991,0.768,1.408,2.25,1.82,2.368l-0.018-0.015
	C342.587,164.844,341.576,162.232,340.877,162.739z M221.233,386.437c-3.489-0.722-8.543-0.223-11.517-3.354
	c-1.797-1.948-4.454-4.229-6.162-6.7c-0.883-1.252,1.393-2.801-0.883-3.315c-1.459-0.315-0.883,0.515-0.991-1.236
	c-0.172-2.977-1.684-3.633,0.635-2.831c-0.166-0.046,0.356-6.162-2.245-4.69c2.181,2.184-0.22,2.867-0.2,2.35
	c0-1.853-2.104-7.345-3.167-9.628c6.579,0.96,13.332,1.482,20.155,1.482c0.466,0,0.87-0.023,1.326-0.031
	c-0.146,0.008-0.274,0.015-0.371,0.015c-0.115,0.886,1.411,2.985,1.068,3.745c-0.829,2.163-4.25-0.745-5.015,0.049
	c-0.62,0.722,1.961,3.968,2.358,4.114c-0.225,0.507-0.94,3.707-1.05,3.707c-1.308-0.161-2.644,1.623-1.239,2.629
	c1.009,0.678,2.068,0.586,2.993,1.139c2.045,1.175-1.715,2.501-0.932,3.86c1.114,2.01-2.647,1.024,0.86,4.201
	c-5.079,0.164-0.023,2.9-0.023,2.916c-0.596-0.338-0.33-0.1,0.21-0.906c-0.399-0.3-1.28,0.205-1.516-0.34
	c-0.968-2.284,3.633,0.484,3.487,0.44c1.405,0.822,3.784,0.945,4.874,1.823c-0.42,0.115-1.987,0.66-2.591,0.561
	C221.11,386.406,220.872,386.36,221.233,386.437z M200.579,363.133c-0.054,0-0.087,0,0.067,0.023
	C201.257,362.245,199.588,362.9,200.579,363.133z M208.197,380.677c-0.52,0.1-0.52,0.282,0.023,0.614c-0.215-0.033,0.212,0.041,0,0
	C208.796,381.11,208.788,380.91,208.197,380.677z M213.76,382.971c-0.671,0.289-0.73,0.515-0.238,0.63
	c-0.033,0-0.046,0.015,0.051,0.015C214.154,383.401,214.193,383.155,213.76,382.971z M213.522,383.601
	c0.013,0,0.02,0.015,0.051,0.015C213.652,383.578,213.573,383.578,213.522,383.601z M202.058,368.422
	c0.054-0.015,0.123-0.031,0.174-0.061C202.26,368.238,202.222,368.261,202.058,368.422z M221.299,386.437c0,0-0.01,0-0.067,0
	C221.443,386.47,221.386,386.46,221.299,386.437z M317.724,133.043c2.186,2.445,4.291,4.987,6.267,7.585
	c0.476,0.195,0.85,0.207,0.996-0.072c-0.768-1.866-1.979-3.968-3.873-5.714C320.174,133.965,318.935,133.53,317.724,133.043z
	 M324.424,133.176C324.467,133.371,325.345,133.422,324.424,133.176L324.424,133.176z M367.603,177.487h-0.023
	C367.657,177.577,367.652,177.546,367.603,177.487z M398.723,287.77c0,0,0-0.015,0-0.026
	C398.723,287.701,398.723,287.662,398.723,287.77z M397.33,218.043c0.773,2.637,1.462,5.258,2.125,7.877
	C399.657,224.422,398.764,221.532,397.33,218.043z M400.53,263.616c0.015-0.023,0.015-0.054,0.033-0.092
	C400.435,264.1,400.481,263.892,400.53,263.616z M372.762,176.09c-0.218,0.822,0.069,1.3,0.758,1.636
	C373.578,176.991,373.348,176.527,372.762,176.09z M354.737,167.693v0.005l0.018,0.013L354.737,167.693z M368.466,177.206
	c-0.812-0.63-1.72-0.399-2.573-0.855c0.284,0.988,1.224,0.66,1.687,1.137c-0.305-0.335-0.077-0.097,0.023,0
	C367.892,177.725,368.166,177.441,368.466,177.206z M402.621,273.178c-1.638,11.978-2.401,22.715-7.109,33.915
	c-2.248,5.164-4.28,10.345-6.51,15.539c-0.922,2.053-2.844,3.389-3.804,5.484c-1.016,2.207-2.076,4.454-3.784,6.254
	c-3.19,3.389-5.284,8.438-9.679,10.601c-2.138,1.075-4.956,0.863-6.858,2.568c-1.226-2.706,1.935-6.477,2.555-9.093
	c0.955-4.022,0.622-8.166,2.368-12.029c2.916-7.56-0.312-15.831,3.044-23.084c1.28-2.831,2.23-5.486,3.853-8.01
	c1.605-2.506,0.86-6.986,1.224-9.807c0.499-3.515-0.911-9.014-2.517-12.17c-0.54-1.134-4.611-6.697-2.839-8.023
	c2.376-1.861,1.531-12.073-1.249-13.33c-1.569-0.714-3.909,2.022-5.028-0.054c-0.799-1.49-0.87-3.528-2.563-4.367
	c-2.301-1.162-10.821,4.872-11.958,4.339c-0.809-0.392-1.62-0.609-2.488-0.74c1.923-9.021,2.931-18.355,2.931-27.937
	c0-17.231-3.254-33.677-9.121-48.829c2.388-0.364,6.167-0.755,6.564-0.412c1.034,0.924,4.127,2.913,3.448,5.32
	c-0.771,2.826,5.355,3.387,6.907,3.909c1.928,0.63,2.506,2.839,4.585,3.052c1.4,0.105,2.115,1.083,3.269,1.761
	c1.938,1.142-2.55-8.003,0.852-5.548c2.13,1.528,5.048,3.041,7.67,3.651c0.041-0.497,0.202-0.927,0.43-1.341
	c1.654-0.584,3.1,1.923,0.929-2.186c-0.566-1.027-5.048-9.871-6.182-9.29c-0.556,0.274,0.404,0.929-0.085,1.265
	c-0.632,0.394-1.802-1.695-2.212-1.226c-0.102,0.105,0.371,0.837,0.223,1.085c-0.532,0.742-8.067-6.446-8.425-7.864
	c0.44-0.128,0.858-0.248,1.239-0.387c-0.056-0.489-0.259-0.929-0.684-1.244c0.315-0.177,0.586-0.238,0.937-0.259
	c-0.343-0.548-0.366-1.116-0.1-1.7c0.73-0.591,2.877,1.779,3.986,1.679c-0.681-2.854-5.896-6.899-8.443-7.962
	c-0.32,0.451-0.069,0.773-0.125,1.193c-0.589-1.011-2.063-1.039-2.455-2.511c0.594,0.645,1.26,0.991,2.066,1.009
	c0.614-0.497-2.322-2.99-2.542-3.267c-0.067,0.64,0,1.275,0.289,1.859c-0.909,0.571-1.375-0.553-2.24-0.584
	c1.121,3.476,5.266,8.609,8.371,10.353c0.095-0.174-1.805,1.052-0.95,1.091c-1.597-0.059-1.677,0.73-2.45,0.663
	c0,1.923,3.331,2.655,4.106,3.94c0.607,0.955,1.057,2.44,1.585,3.643c-1.165-0.399-4.096-3.003-4.073-2.967
	c-0.765-0.138-4.314-4.237-4.966-5.015c-1.692-1.961-2.258-2.701-4.536-3.899c-2.921-1.516-5.975-4.388-8.837-5.358
	c-1.779-0.64,0.796,2.65,0.801,2.662c1.405,1.216,3.269,2.186,4.739,3.377c2.394,1.933,5.827,2.184,7.962,4.81
	c-0.581-0.451-1.224-0.742-1.925-0.809c-0.189,1.267,2.13,2.829,2.294,4.39c0.054,0.399,0.627,2.67,0.545,3.072
	c-0.632,0.038-4.567-1.756-4.332-2.445c0.287-0.655,4.444,0.261,2.742-1.976c-1.475-1.876-3.42-3.016-5.396-4.191
	c-3.351-1.884-7.091-5.171-10.734-6.326c0.228,1.193-0.095,1.81-0.63,2.138c-3.313-6.49-7.132-12.677-11.436-18.516
	c1.06-0.028,2.593,0.059,2.954-0.428c1.403-1.738,0.481-0.118,2.604-0.456c-0.236-2.109-3.779-3.374-4.022-4.634
	c0.602,0.046,1.009,0.561,1.697,0.609c-0.105-0.389-6.73-4.04-3.133-3.4c1.242-1.577-2.504-2.783-3.313-3.028
	c0.571,0.497,1.183,0.968,1.802,1.38c-3.569,2.903-7.521-2.373-11.231-4.805c-1.462-1.523-3.005-3.013-4.59-4.452
	c1.92,0.645,3.689,1.439,4.523,1.984c0.046,0.333-0.269,0.133-0.399,0.333c0.087,0.259,4.221,2.012,5.806,2.429
	c-0.3-0.3-2.642-1.487-2.675-1.946c0.596,0.988,4.659,2.051,5.811,2.591c2.647,1.321,5.251,2.706,7.764,4.183
	c5.358,3.046,10.501,6.387,15.414,10.084c10.125,7.555,19.254,16.41,27.115,26.289c8.374,10.44,15.283,22.044,20.552,34.345
	c1.94,4.6,3.474,9.265,4.785,13.929c-4.206-10.381-13.309-26.007-14.111-25.523c-0.886,0.648,6.984,12.239,7.588,13.724
	c-0.031-0.054,0.573,1.38,0,0c2.908,6.723,5.955,13.361,8.556,20.18c0.054-0.133,0.074-0.305,0.092-0.504
	c0.865,3.259,1.71,6.554,2.57,9.838l-0.013-0.018C404.424,248.41,404.385,260.442,402.621,273.178z M398.075,259.215
	c0.133-0.812,0.689-1.505,0.333-2.534C398.185,257.654,397.737,258.365,398.075,259.215z M397.179,263.916
	c0.297-0.428,0.512-0.794,0.282-1.3C397.135,262.999,397.143,263.414,397.179,263.916z M394.365,302.333
	c0.079-0.102,0.079-0.195,0.159-0.479c-0.067,0.046-1.608,0.806-1.07,0.806C393.766,302.533,394.068,302.431,394.365,302.333
	C394.168,302.676,394.445,302.231,394.365,302.333z M396.255,284.344c-1.4,0.886-1.469,0.955-1.454,2.378
	C394.967,285.778,395.981,285.315,396.255,284.344z M396.413,279.478c0,1.114-0.054,4.152,0.632,5.1
	c0.136-4.424-0.067-8.886-0.166-13.322C396.321,273.789,396.38,276.867,396.413,279.478
	C396.403,278.523,396.413,280.356,396.413,279.478z M398.497,286.815c-0.097,4.006-1.559,7.631-1.736,11.674
	c1.562-1.871,1.915-8.351,1.961-10.719c0,0.154,0,0.041,0-0.026C398.723,287.462,398.792,287.191,398.497,286.815z M400.563,263.521
	c0.23-0.868-0.041-1.431-0.3-2.107c-2.176,1.239-1.411,5.292-1.405,7.414c1.664-1.562,1.042-2.46,1.672-5.215
	C400.632,263.401,400.694,263.078,400.563,263.521z M217.618,365.745c-0.051-0.422-0.289-0.753-0.691-0.876
	C215.252,365.015,217.618,367.032,217.618,365.745z M307.233,401.377c-2.831-0.399-13.665,2.716-14.395,0.23
	c-1.108-0.353-5.939,1.326-7.36,1.462c-3.136,0.323-6.213,1.162-9.262,1.708c-5.181,0.914-10.094,2.783-15.36,3.4
	c-2.107,0.215-16.151,0.492-16.655-2.222c-0.215-1.569-3.215-2.396-4.04-3.717c-0.123-0.177-2.55-3.581-2.601-3.361
	c0.12-0.968,2.401-1.062,3.182-0.932c-0.397-1.459,0.622-0.852,1.464-1.367c-0.763-0.364-8.164,0.945-8.369,1.377
	c-0.289,0.481,0.468,0.991-0.289,1.956c-0.471,0.604-1.764,0.174-1.897,0.428c-0.428,1.055,4.372,0.886,2.493,2.294
	c-0.138,0.154-4.068,0.261-4.823,0.312c-0.023,0.54,5.105,1.764,5.683,2.555c-5.583-0.745-11.423-0.276-17.562-1.277
	c1.626,1.446,3.909,1.047,5.722,2.171c-1.935,0.323-4.193-0.66-6.067-0.855c14.648,4.447,30.612,5.839,45.855,5.084
	c8.033-0.407,16.008-1.439,23.839-3.09c1.953-0.387,20.841-5.716,20.588-6.139C307.423,401.408,307.267,401.393,307.233,401.377z
	 M307.233,401.377c0.036,0.015,0.115,0.015,0.148,0.015C307.2,401.354,307.2,401.359,307.233,401.377z M216.929,364.869
	C217.201,364.838,216.584,364.892,216.929,364.869L216.929,364.869z M307.379,401.385c0.064,0,0.082,0,0.128-0.031
	c0-0.018,0-0.054,0-0.054C307.446,401.27,307.423,401.316,307.379,401.385z M395.566,312.722c-0.054,0.192-0.141,0.384-0.202,0.556
	C395.443,313.116,395.579,312.97,395.566,312.722z M394.755,314.854c-0.778,1.482-1.267,3.059-1.869,4.593
	C393.608,317.932,394.266,316.447,394.755,314.854z"/>
<polygon style="fill:#353F49;" points="376.863,113.9 135.14,113.9 135.14,176.146 256,199.777 376.863,176.146 "/>
<rect x="65.155" y="101.184" style="fill:#474F59;" width="190.848" height="12.716"/>
<rect x="256" y="101.184" style="fill:#232E38;" width="190.848" height="12.716"/>
<g>
	<rect x="436.89" y="113.9" style="fill:#353F49;" width="4.677" height="62.244"/>
	<polygon style="fill:#353F49;" points="445.443,218.668 441.58,176.146 436.902,176.146 433.042,218.668 435.116,214.444 
		437.148,218.668 439.224,214.444 441.298,218.668 443.366,214.444 	"/>
</g>
<path style="fill:#232E38;" d="M445.594,176.146c0,3.517-2.836,6.367-6.369,6.367c-3.492,0-6.367-2.852-6.367-6.367
	c0-3.51,2.875-6.349,6.367-6.349C442.755,169.797,445.594,172.636,445.594,176.146z"/>
<g>
</g>
<g>
</g>
<g>
</g>
<g>
</g>
<g>
</g>
<g>
</g>
<g>
</g>
<g>
</g>
<g>
</g>
<g>
</g>
<g>
</g>
<g>
</g>
<g>
</g>
<g>
</g>
<g>
</g>
</svg>
